<?xml version="1.0" encoding="utf-8"?>
<!-- Generator: Adobe Illustrator 16.0.0, SVG Export Plug-In . SVG Version: 6.00 Build 0)  -->
<!DOCTYPE svg PUBLIC "-//W3C//DTD SVG 1.1//EN" "http://www.w3.org/Graphics/SVG/1.1/DTD/svg11.dtd">
<svg version="1.1" xmlns="http://www.w3.org/2000/svg" xmlns:xlink="http://www.w3.org/1999/xlink" x="0px" y="0px" width="32px"
	 height="32px" viewBox="0 0 32 32" enable-background="new 0 0 32 32" xml:space="preserve">
<g id="_x31_w_x2B_2" display="none">
	<rect display="inline" fill="#4D4D4E" width="32" height="15"/>
	<rect y="17" display="inline" fill="#4D4D4E" width="15" height="15"/>
	<rect x="17" y="17" display="inline" fill="#4D4D4E" width="15" height="15"/>
</g>
<g id="_x32__x2B_1w" display="none">
	<rect y="17" display="inline" fill="#4D4D4E" width="32" height="15"/>
	<rect display="inline" fill="#4D4D4E" width="15" height="15"/>
	<rect x="17" display="inline" fill="#4D4D4E" width="15" height="15"/>
</g>
<g id="_x31_t_x2B_2" display="none">
	<rect display="inline" fill="#4D4D4E" width="15" height="32"/>
	<rect x="17" y="17" display="inline" fill="#4D4D4E" width="15" height="15"/>
	<rect x="17" display="inline" fill="#4D4D4E" width="15" height="15"/>
</g>
<g id="_x32__x2B_1t" display="none">
	<rect x="17" display="inline" fill="#4D4D4E" width="15" height="32"/>
	<rect y="17" display="inline" fill="#4D4D4E" width="15" height="15"/>
	<rect display="inline" fill="#4D4D4E" width="15" height="15"/>
</g>
<g id="_x34_">
	<rect x="17" y="17" fill="#4D4D4E" width="15" height="15"/>
	<rect y="17" fill="#4D4D4E" width="15" height="15"/>
	<rect x="17" fill="#4D4D4E" width="15" height="15"/>
	<rect fill="#4D4D4E" width="15" height="15"/>
</g>
</svg>
