<?xml version="1.0" encoding="UTF-8"?>
<svg width="63px" height="39px" viewBox="0 0 63 39" version="1.1" xmlns="http://www.w3.org/2000/svg" xmlns:xlink="http://www.w3.org/1999/xlink">
    <!-- Generator: Sketch 48.2 (47327) - http://www.bohemiancoding.com/sketch -->
    <title>Credit1</title>
    <desc>Created with Sketch.</desc>
    <defs></defs>
    <g id="Home---WIP-|-Illustrations-&amp;-icons" stroke="none" stroke-width="1" fill="none" fill-rule="evenodd" transform="translate(-339.000000, -1068.000000)">
        <g id="Group-18" transform="translate(282.000000, 1021.000000)">
            <g id="Group-16-Copy" transform="translate(58.000000, 0.000000)">
                <g id="Credit1" transform="translate(0.000000, 47.000000)">
                    <g id="1" stroke-width="1" stroke="#30DE80" stroke-linecap="round">
                        <polygon id="Stroke-1" stroke-width="2" points="48.158914 37.4717795 0.0724168421 37.6193179 0.00278526316 14.6593179 48.0903537 14.5128564"></polygon>
                        <path d="M5.19987206,19.9097487 L9.5995166,19.8957487" id="Stroke-3" stroke-width="2"></path>
                        <path d="M38.7034761,33.0779333 L43.1031206,33.0650103" id="Stroke-4" stroke-width="2"></path>
                        <path d="M54.4154313,8.15355897 L54.4839916,31.1124821" id="Stroke-6" stroke-width="2"></path>
                        <path d="M6.32871984,8.30077436 L54.415217,8.1532359" id="Stroke-7" stroke-width="2"></path>
                        <g id="Group-12" transform="translate(12.651012, 0.134831)" stroke-width="2">
                            <path d="M48.2682891,0.942523077 L48.3368495,23.9014462" id="Stroke-8"></path>
                            <path d="M0.181577733,1.08866154 L48.2680749,0.9422" id="Stroke-10"></path>
                        </g>
                    </g>
                    <ellipse id="Oval-3" fill-opacity="0.5" fill="#30DE80" cx="24.2307692" cy="26.3076923" rx="6.78461538" ry="6.82051282"></ellipse>
                </g>
            </g>
        </g>
    </g>
</svg>