<?xml version="1.0" encoding="UTF-8"?>
<svg width="57px" height="53px" viewBox="0 0 57 53" version="1.1" xmlns="http://www.w3.org/2000/svg" xmlns:xlink="http://www.w3.org/1999/xlink">
    <!-- Generator: Sketch 48.2 (47327) - http://www.bohemiancoding.com/sketch -->
    <title>Investing</title>
    <desc>Created with Sketch.</desc>
    <defs></defs>
    <g id="Home---WIP-|-Illustrations-&amp;-icons" stroke="none" stroke-width="1" fill="none" fill-rule="evenodd" transform="translate(-694.000000, -1054.000000)">
        <g id="Group-18" transform="translate(282.000000, 1021.000000)">
            <g id="Group-16-Copy-2" transform="translate(350.000000, 0.000000)">
                <g id="Icon" transform="translate(57.000000, 34.000000)">
                    <g id="Investing">
                        <g id="3">
                            <path d="M32.7938537,12.1726118 L32.9029186,24.5829936" id="Stroke-10" stroke="#30DE80" stroke-width="2" stroke-linecap="round"></path>
                            <path d="M32.9031983,21.5468179 L40.9124797,16.4117618" id="Stroke-12" stroke="#30DE80" stroke-width="2" stroke-linecap="round"></path>
                            <path d="M32.9031983,21.4872368 L24.4380814,16.4131474" id="Stroke-14" stroke="#30DE80" stroke-width="2" stroke-linecap="round"></path>
                            <path d="M30.0564288,6.26686379 C30.0564288,8.47107143 31.1406132,10.4108481 32.7939478,11.6386953 C34.4454162,10.4108481 35.5296006,8.47107143 35.5296006,6.26686379 C35.5296006,4.06265614 34.4454162,2.12472861 32.7939478,0.895032235 C31.1406132,2.12472861 30.0564288,4.06265614 30.0564288,6.26686379 Z" id="Stroke-4" stroke="#30DE80" stroke-width="2"></path>
                            <path d="M18.8626502,15.5540151 C17.0573074,14.1204011 16.085673,11.9287787 16.0190338,9.71032455 C17.967291,9.09016033 20.169462,9.41884157 21.9766263,10.8521724 C23.7822891,12.2877702 24.7521021,14.4796758 24.8187413,16.69813 C22.8723055,17.318011 20.6679929,16.9876291 18.8626502,15.5540151 Z" id="Stroke-6" stroke="#30DE80" stroke-width="2"></path>
                            <path d="M46.7562121,15.3888423 C45.0029346,16.883435 42.8098796,17.2889159 40.844423,16.7363191 C40.8303243,14.5167126 41.7234538,12.2931366 43.4769806,10.7965503 C45.2302581,9.3019576 47.4212333,8.89824967 49.3903509,9.45128777 C49.4007887,11.670453 48.5094896,13.8942496 46.7562121,15.3888423 Z" id="Stroke-8" stroke="#30DE80" stroke-width="2"></path>
                            <polygon id="Stroke-16" stroke="#30DE80" stroke-width="2" stroke-linecap="round" points="6.85961039 50.105303 60.3433766 50.105303 60.3433766 24.9343833 6.85961039 24.9343833"></polygon>
                            <g id="SHAPE" transform="translate(11.873016, 28.963636)" stroke="#30DE80" stroke-linecap="round" stroke-width="2">
                                <path d="M0.696563348,0.589526212 L5.59050274,0.589526212" id="Stroke-18"></path>
                                <path d="M37.6346196,16.2912141 L42.528559,16.2912141" id="Stroke-19"></path>
                            </g>
                            <ellipse id="Oval-3" fill-opacity="0.5" fill="#30DE80" cx="33.4603175" cy="37.5454545" rx="7.55555556" ry="7.50909091"></ellipse>
                        </g>
                    </g>
                </g>
            </g>
        </g>
    </g>
</svg>