<?xml version="1.0" encoding="UTF-8"?>
<svg width="862px" height="713px" viewBox="0 0 862 713" version="1.1" xmlns="http://www.w3.org/2000/svg" xmlns:xlink="http://www.w3.org/1999/xlink">
    <!-- Generator: Sketch 48.2 (47327) - http://www.bohemiancoding.com/sketch -->
    <title>Artboard</title>
    <desc>Created with Sketch.</desc>
    <defs>
        <linearGradient x1="140.446138%" y1="56.7381463%" x2="3.94056298%" y2="14.3426083%" id="linearGradient-1">
            <stop stop-color="#FFFFFF" stop-opacity="0" offset="0%"></stop>
            <stop stop-color="#4F5666" offset="100%"></stop>
        </linearGradient>
        <linearGradient x1="72.6334156%" y1="93.0546384%" x2="10.9225985%" y2="-24.4008634%" id="linearGradient-2">
            <stop stop-color="#11998E" offset="0%"></stop>
            <stop stop-color="#38EF7D" offset="100%"></stop>
        </linearGradient>
        <linearGradient x1="72.5917693%" y1="93.0546384%" x2="10.9945023%" y2="-24.4008634%" id="linearGradient-3">
            <stop stop-color="#11998E" offset="0%"></stop>
            <stop stop-color="#38EF7D" offset="100%"></stop>
        </linearGradient>
    </defs>
    <g id="Page-1" stroke="none" stroke-width="1" fill="none" fill-rule="evenodd">
        <g id="Artboard">
            <g id="Workflow-3" transform="translate(59.000000, 76.000000)">
                <path d="M587.53,205.29 C722.43,283.18 723.14,409.46 589.11,487.29 C455.08,565.12 237.11,565.18 102.18,487.29 C-32.75,409.4 -33.42,283.13 100.6,205.29 C234.62,127.45 452.62,127.41 587.53,205.29 Z" id="Shape" stroke="#C1CBD3" opacity="0.2"></path>
                <g id="Group" transform="translate(126.000000, 220.000000)" stroke="#C1CBD3">
                    <path d="M372.5,37 C457.91,86.31 458.36,166.26 373.5,215.58 C288.64,264.9 150.62,264.89 65.21,215.58 C-20.2,166.27 -20.65,86.32 64.21,37.01 C149.07,-12.3 287.09,-12.28 372.5,37 Z M146.38,168.44 C186.67,191.7 251.77,191.7 291.8,168.44 C331.83,145.18 331.61,107.44 291.32,84.21 C251.03,60.98 185.93,60.95 145.91,84.21 C105.89,107.47 106.09,145.21 146.38,168.44 Z" id="Shape" opacity="0.19"></path>
                    <ellipse id="Oval" opacity="0.27" transform="translate(218.836773, 126.312882) rotate(-89.840000) translate(-218.836773, -126.312882) " cx="218.836773" cy="126.312882" rx="59.56" ry="102.83"></ellipse>
                </g>
                <path d="M257.007725,160 L138.275948,263.110517 C135.357011,265.645416 135.045687,270.066623 137.580586,272.98556 C138.062524,273.540511 138.628857,274.016097 139.258771,274.394838 L433.156287,451.103077 C435.511709,452.519294 438.477947,452.426096 440.739817,450.864806 L552.721091,373.56805 C555.858771,371.402219 556.686158,367.12368 554.582155,363.94421 L461.41775,223.15852 L257.007725,160 Z" id="Path-2" fill-opacity="0.2" fill="url(#linearGradient-1)" fill-rule="nonzero" opacity="0.195538949"></path>
                <path d="M191.21,435.61 C276.62,484.92 414.65,484.92 499.5,435.61 C584.35,386.3 583.91,306.34 498.5,257.03 C413.09,207.72 275.06,207.72 190.2,257.03 C105.34,306.34 105.8,386.3 191.2,435.61" id="Shape" stroke="#C1CBD3" opacity="0.1"></path>
                <path d="M547.51,177.4 L246.83,3.81 C241.36208,0.568147614 234.741825,-0.0942438945 228.74,2 C225.87,3.05 223.69,4.52 223.69,6.63 L233.3,165.55 C233.3,170.26 236.19,175.77 239.72,177.8 L403.73,278 L533.39,357.65 C534.27,358.16 540.92,360.65 540.92,360.65 C548.69,357.12 553.92,347.9 553.92,339.36 L553.92,189.66 C553.93,185 551,179.44 547.51,177.4 Z" id="Shape" fill="#4F5666" fill-rule="nonzero"></path>
                <path d="M537.34,181.93 L229.54,4.22 C226.01,2.22 223.13,4.37 223.13,9.07 L223.13,170.07 C223.13,174.78 226.01,180.29 229.54,182.33 L537.34,360.03 C540.86,362.03 543.75,359.89 543.75,355.18 L543.75,194.18 C543.75,189.48 540.87,184 537.34,181.93 Z" id="Shape" fill="#F1F7FF" fill-rule="nonzero"></path>
                <g id="Group" opacity="0.48" transform="translate(243.000000, 52.000000)" fill="#BCC6CE" fill-rule="nonzero">
                    <path d="M0.11,5.77 L0.11,102.16 C0.108520968,106.530682 2.43210315,110.572192 6.21,112.77 L76.44,153.57 C78.1256307,154.550362 80.2066013,154.555436 81.8969929,153.583306 C83.5873845,152.611176 84.6295899,150.80999 84.63,148.86 L84.63,55.39 C84.6301888,49.2098292 81.3428984,43.4961147 76,40.39 L8.3,1.06 C6.61436926,0.0796380757 4.53339873,0.0745639267 2.84300712,1.0466939 C1.1526155,2.01882388 0.110410137,3.82001017 0.11,5.77 Z" id="Shape"></path>
                </g>
                <g id="Group" opacity="0.48" transform="translate(351.000000, 153.000000)" fill="#BCC6CE" fill-rule="nonzero">
                    <path d="M0.41,3.19 L0.41,20.48 C0.412879832,21.5489103 0.984290927,22.5355468 1.91,23.07 L58.32,55.74 C59.2463283,56.2700927 60.384537,56.2681305 61.3090321,55.7348472 C62.2335272,55.2015638 62.8050884,54.2172667 62.81,53.15 L62.81,35.86 C62.8091901,34.7931453 62.2418614,33.8069834 61.32,33.27 L4.9,0.6 C3.97367175,0.0699072969 2.83546298,0.0718694676 1.91096789,0.605152826 C0.9864728,1.13843618 0.414911589,2.12273331 0.41,3.19 Z" id="Shape"></path>
                </g>
                <g id="Group" opacity="0.48" transform="translate(351.000000, 110.000000)" fill="#BCC6CE" fill-rule="nonzero">
                    <path d="M0.41,3.64 L0.41,20.93 C0.409312383,22.002484 0.981201284,22.9937581 1.91,23.53 L58.32,56.19 C59.2463283,56.7200927 60.384537,56.7181305 61.3090321,56.1848472 C62.2335272,55.6515638 62.8050884,54.6672667 62.81,53.6 L62.81,36.31 C62.8091901,35.2431453 62.2418614,34.2569834 61.32,33.72 L4.9,1.05 C3.97367175,0.519907297 2.83546298,0.521869468 1.91096789,1.05515283 C0.9864728,1.58843618 0.414911589,2.57273331 0.41,3.64 Z" id="Shape"></path>
                </g>
                <g id="Group" opacity="0.48" transform="translate(433.000000, 156.000000)" fill="#BCC6CE" fill-rule="nonzero">
                    <path d="M0.28,3.42 L0.28,20.7 C0.277246421,21.7704246 0.84504919,22.7612214 1.77,23.3 L42.27,46.78 C43.1954108,47.3143119 44.3351764,47.3160437 45.2622066,46.7845464 C46.1892368,46.2530491 46.7635725,45.2685659 46.77,44.2 L46.77,26.91 C46.7727536,25.8395754 46.2049508,24.8487786 45.28,24.31 L4.77,0.83 C3.84367175,0.299907297 2.70546298,0.301869468 1.78096789,0.835152826 C0.8564728,1.36843618 0.284911589,2.35273331 0.28,3.42 Z" id="Shape"></path>
                </g>
                <g id="Group" opacity="0.48" transform="translate(351.000000, 196.000000)" fill="#BCC6CE" fill-rule="nonzero">
                    <path d="M0.41,3.38 L0.41,20.67 C0.409312383,21.742484 0.981201284,22.7337581 1.91,23.27 L58.32,55.93 C59.2463283,56.4600927 60.384537,56.4581305 61.3090321,55.9248472 C62.2335272,55.3915638 62.8050884,54.4072667 62.81,53.34 L62.81,36.05 C62.8091901,34.9831453 62.2418614,33.9969834 61.32,33.46 L4.9,0.8 C3.97521716,0.27076224 2.83910909,0.271756971 1.91525443,0.802613325 C0.991399765,1.33346968 0.418442485,2.31452141 0.41,3.38 Z" id="Shape"></path>
                </g>
                <g id="Group" opacity="0.48" transform="translate(430.000000, 199.000000)" fill="#BCC6CE" fill-rule="nonzero">
                    <path d="M0.7,3 L0.7,20.29 C0.700809919,21.3568547 1.26813857,22.3430166 2.19,22.88 L58.6,55.55 C59.5263283,56.0800927 60.664537,56.0781305 61.5890321,55.5448472 C62.5135272,55.0115638 63.0850884,54.0272667 63.09,52.96 L63.09,35.67 C63.0871202,34.6010897 62.5157091,33.6144532 61.59,33.08 L5.18,0.41 C4.25431439,-0.115035862 3.11975706,-0.110362791 2.19842787,0.422280646 C1.27709869,0.954924082 0.706912135,1.93580607 0.7,3 Z" id="Shape"></path>
                </g>
                <path d="M427.8,242.57 L427.8,259.43 C427.797832,260.565657 428.399592,261.616833 429.38,262.19 L485.38,294.64 C486.363283,295.2077 487.57465,295.208078 488.558286,294.640991 C489.541923,294.073905 490.148586,293.025397 490.15,291.89 L490.15,275.03 C490.146538,273.895863 489.541171,272.848844 488.56,272.28 L432.56,239.83 C431.579711,239.261645 430.370598,239.259763 429.388545,239.825063 C428.406491,240.390362 427.80086,241.436866 427.8,242.57 Z" id="Shape" fill="url(#linearGradient-2)" fill-rule="nonzero"></path>
                <polygon id="Shape" fill="#1CBA55" fill-rule="nonzero" points="497.28 147.83 487.59 153.27 515.97 169.7 524.36 163.89"></polygon>
                <polygon id="Shape" fill="#38EF7D" fill-rule="nonzero" points="487.59 153.27 487.59 208.54 498.05 196.59 515.04 221.8 515.97 169.7"></polygon>
                <polygon id="Shape" fill="#F1F7FF" fill-rule="nonzero" points="502.34 170.5 503.58 177.94 510.33 181.62 504.36 182.54 505.6 189.98 500.66 183.1 494.68 184.02 497.61 178.86 492.66 171.99 499.41 175.67"></polygon>
                <path d="M442.93,245.09 L142.25,71.49 C136.777502,68.2581272 130.157459,67.6067354 124.16,69.71 C121.29,70.71 119.16,72.22 119.16,74.34 L128.77,233.26 C128.77,237.96 131.66,243.47 135.18,245.51 L299.18,345.67 L428.84,425.32 C429.72,425.83 436.37,428.32 436.37,428.32 C444.13,424.78 449.37,415.56 449.37,407.03 L449.37,257.34 C449.35,252.64 446.46,247.13 442.93,245.09 Z" id="Shape" fill="#4F5666" fill-rule="nonzero"></path>
                <path d="M432.76,249.61 L125,71.91 C121.47,69.91 118.59,72.05 118.59,76.76 L118.59,237.76 C118.59,242.46 121.47,247.98 125,250.01 L432.8,427.72 C436.32,429.72 439.21,427.57 439.21,422.87 L439.21,261.87 C439.17,257.16 436.28,251.65 432.76,249.61 Z" id="Shape" fill="#F1F7FF" fill-rule="nonzero"></path>
                <g id="Group" opacity="0.48" transform="translate(138.000000, 120.000000)" fill="#BCC6CE" fill-rule="nonzero">
                    <path d="M0.53,5.46 L0.53,101.85 C0.525924578,106.218756 2.8506744,110.258485 6.63,112.45 L76.86,153.26 C78.5471757,154.241264 80.630282,154.24539 82.3213314,153.270817 C84.0123808,152.296244 85.0531722,150.491776 85.05,148.54 L85.05,55.08 C85.0542941,48.8987333 81.7659092,43.1831164 76.42,40.08 L8.71,0.74 C7.02427935,-0.24284673 4.94127368,-0.247542384 3.25113899,0.72769426 C1.56100429,1.7029309 0.522665355,3.50869582 0.53,5.46 Z" id="Shape"></path>
                </g>
                <g id="Group" opacity="0.48" transform="translate(246.000000, 220.000000)" fill="#BCC6CE" fill-rule="nonzero">
                    <path d="M0.83,3.88 L0.83,21.17 C0.832879832,22.2389103 1.40429093,23.2255468 2.33,23.76 L58.74,56.42 C59.6647828,56.9492378 60.8008909,56.948243 61.7247456,56.4173867 C62.6486002,55.8865303 63.2215575,54.9054786 63.23,53.84 L63.23,36.55 C63.2327536,35.4795754 62.6649508,34.4887786 61.74,33.95 L5.33,1.29 C4.40304538,0.754817338 3.26116727,0.754045851 2.33349033,1.28797547 C1.40581338,1.82190509 0.832879242,2.80964629 0.83,3.88 Z" id="Shape"></path>
                </g>
                <g id="Group" opacity="0.48" transform="translate(246.000000, 178.000000)" fill="#BCC6CE" fill-rule="nonzero">
                    <path d="M0.83,3.33 L0.83,20.62 C0.832879832,21.6889103 1.40429093,22.6755468 2.33,23.21 L58.74,55.88 C59.6663283,56.4100927 60.804537,56.4081305 61.7290321,55.8748472 C62.6535272,55.3415638 63.2250884,54.3572667 63.23,53.29 L63.23,36 C63.2291901,34.9331453 62.6618614,33.9469834 61.74,33.41 L5.33,0.74 C4.40304538,0.204817338 3.26116727,0.204045851 2.33349033,0.737975469 C1.40581338,1.27190509 0.832879242,2.25964629 0.83,3.33 Z" id="Shape"></path>
                </g>
                <g id="Group" opacity="0.48" transform="translate(328.000000, 224.000000)" fill="#BCC6CE" fill-rule="nonzero">
                    <path d="M0.7,3.1 L0.7,20.39 C0.700809919,21.4568547 1.26813857,22.4430166 2.19,22.98 L42.69,46.47 C43.6169546,47.0051827 44.7588327,47.0059541 45.6865097,46.4720245 C46.6141866,45.9380949 47.1871208,44.9503537 47.19,43.88 L47.19,26.59 C47.1891901,25.5231453 46.6218614,24.5369834 45.7,24 L5.19,0.52 C4.26521716,-0.00923776002 3.12910909,-0.00824302869 2.20525443,0.522613325 C1.28139976,1.05346968 0.708442485,2.03452141 0.7,3.1 Z" id="Shape"></path>
                </g>
                <g id="Group" opacity="0.48" transform="translate(246.000000, 264.000000)" fill="#BCC6CE" fill-rule="nonzero">
                    <path d="M0.83,3.07 L0.83,20.36 C0.832879832,21.4289103 1.40429093,22.4155468 2.33,22.95 L58.74,55.62 C59.669017,56.1375458 60.8025984,56.124585 61.7195395,55.5859336 C62.6364805,55.0472821 63.1997295,54.0634501 63.2,53 L63.2,35.71 C63.1991901,34.6431453 62.6318614,33.6569834 61.71,33.12 L5.3,0.45 C4.37031288,-0.072584095 3.23308052,-0.0623105617 2.3129862,0.476984095 C1.39289188,1.01627875 0.828281204,2.00350606 0.83,3.07 Z" id="Shape"></path>
                </g>
                <g id="Group" opacity="0.48" transform="translate(326.000000, 266.000000)" fill="#BCC6CE" fill-rule="nonzero">
                    <path d="M0.12,3.65 L0.12,20.94 C0.120809919,22.0068547 0.688138572,22.9930166 1.61,23.53 L58,56.2 C58.9263283,56.7300927 60.064537,56.7281305 60.9890321,56.1948472 C61.9135272,55.6615638 62.4850884,54.6772667 62.49,53.61 L62.49,36.32 C62.4871202,35.2510897 61.9157091,34.2644532 60.99,33.73 L4.58,1.06 C3.65564746,0.544980307 2.52834048,0.555008342 1.61329628,1.08639051 C0.698252084,1.61777268 0.130819849,2.59190935 0.12,3.65 Z" id="Shape"></path>
                </g>
                <path d="M323.22,310.26 L323.22,327.12 C323.217832,328.255657 323.819592,329.306833 324.8,329.88 L380.8,362.33 C381.783283,362.8977 382.99465,362.898078 383.978286,362.330991 C384.961923,361.763905 385.568586,360.715397 385.57,359.58 L385.57,342.72 C385.558165,341.601212 384.962858,340.569852 384,340 L328,307.55 C327.022268,306.980649 325.815655,306.973677 324.831409,307.531691 C323.847162,308.089705 323.233531,309.128657 323.22,310.26 Z" id="Shape" fill="url(#linearGradient-3)" fill-rule="nonzero"></path>
                <polygon id="Shape" fill="#1CBA55" fill-rule="nonzero" points="392.7 215.52 383.01 220.96 411.39 237.39 419.78 231.58"></polygon>
                <polygon id="Shape" fill="#38EF7D" fill-rule="nonzero" points="383.01 220.96 383.01 276.23 393.47 264.28 410.46 289.49 411.39 237.39"></polygon>
                <polygon id="Shape" fill="#F1F7FF" fill-rule="nonzero" points="397.76 238.19 399 245.63 405.75 249.31 399.77 250.23 401.02 257.66 396.08 250.79 390.1 251.71 393.02 246.54 388.08 239.67 394.83 243.35"></polygon>
            </g>
        </g>
    </g>
</svg>