<svg
  xmlns="http://www.w3.org/2000/svg"
  width="24"
  height="24"
  viewBox="0 0 24 24"
  fill="none"
  stroke="#84929C"
  stroke-width="2"
  stroke-linecap="round"
  stroke-linejoin="round"
>
  <rect x="2" y="7" width="20" height="14" rx="2" ry="2" />
  <path d="M16 21V5a2 2 0 0 0-2-2h-4a2 2 0 0 0-2 2v16" />
</svg>
