<svg
  xmlns="http://www.w3.org/2000/svg"
  width="24"
  height="24"
  viewBox="0 0 24 24"
  fill="none"
  stroke="#84929C"
  stroke-width="2"
  stroke-linecap="round"
  stroke-linejoin="round"
>
  <line x1="4" y1="9" x2="20" y2="9" />
  <line x1="4" y1="15" x2="20" y2="15" />
  <line x1="10" y1="3" x2="8" y2="21" />
  <line x1="16" y1="3" x2="14" y2="21" />
</svg>
