<svg
  xmlns="http://www.w3.org/2000/svg"
  width="24"
  height="24"
  viewBox="0 0 24 24"
  fill="none"
  stroke="#2CD281"
  stroke-width="2"
  stroke-linecap="round"
  stroke-linejoin="round"
>
  <path d="M8.56 2.9A7 7 0 0 1 19 9v4m-2 4H2a3 3 0 0 0 3-3V9a7 7 0 0 1 .78-3.22M13.73 21a2 2 0 0 1-3.46 0" />
  <line x1="1" y1="1" x2="23" y2="23" />
</svg>
