<svg
  xmlns="http://www.w3.org/2000/svg"
  width="24"
  height="24"
  viewBox="0 0 24 24"
  fill="none"
  stroke="#2CD281"
  stroke-width="2"
  stroke-linecap="round"
  stroke-linejoin="round"
>
  <rect x="2" y="3" width="20" height="14" rx="2" ry="2" />
  <line x1="8" y1="21" x2="16" y2="21" />
  <line x1="12" y1="17" x2="12" y2="21" />
</svg>
