<svg
  xmlns="http://www.w3.org/2000/svg"
  width="24"
  height="24"
  viewBox="0 0 24 24"
  fill="none"
  stroke="#2CD281"
  stroke-width="2"
  stroke-linecap="round"
  stroke-linejoin="round"
>
  <rect x="4" y="2" width="16" height="20" rx="2" ry="2" />
  <circle cx="12" cy="14" r="4" />
  <line x1="12" y1="6" x2="12" y2="6" />
</svg>
